unnamed_net69	Q202-C R204-1 Q201-G 
5V_MOLEX	R205-2 R204-2 R202-1 
unnamed_net68	Q201-D R202-2 
unnamed_net67	Q202-B R201-1 
unnamed_net66	R203-2 D201-2 
TERMPWR	R207-2 R203-1 J5-11 J4-26 
/RE_I/O	U15-6 U10-4 
I/O	U15-5 U10-6 
unnamed_net65	U10-5 U5-4 
/I/O	J5-20 J4-50 U15-4 U5-3 
/RE_REQ	U15-3 U10-1 
REQ	U15-2 U10-3 
/RE_C/D	U14-12 U9-13 
C/D	U14-11 U9-11 
/RE_SEL	U14-9 U9-10 
SEL	U14-8 U9-8 
/RE_MSG	U14-6 U9-4 
MSG	U14-5 U9-6 
/RE_RST	U14-3 U9-1 
RST	U14-2 U9-3 
/RE_ACK	U13-12 U8-13 
ACK	U13-11 U8-11 
/RE_BSY	U13-9 U8-10 
BSY	U13-8 U8-8 
/RE_ATN	U13-6 U8-4 
ATN	U13-5 U8-6 
/RE_P	U13-3 U8-1 
P	U13-2 U8-3 
/RE_D7	U12-12 U7-13 
D7	U12-11 U7-11 
/RE_D6	U12-9 U7-10 
D6	U12-8 U7-8 
/RE_D5	U12-6 U7-4 
D5	U12-5 U7-6 
/RE_D4	U12-3 U7-1 
D4	U12-2 U7-3 
/RE_D3	U11-12 U6-13 
D3	U11-11 U6-11 
/RE_D2	U11-9 U6-10 
D2	U11-8 U6-8 
/RE_D1	U11-6 U6-4 
D1	U11-5 U6-6 
/RE_D0	U11-3 U6-1 
D0	U11-2 U6-3 
unnamed_net64	U10-2 U5-2 
/REQ	J5-19 J4-48 U15-1 U5-1 
unnamed_net63	U9-12 U4-8 
/C/D	J5-18 J4-46 U14-13 U4-9 
unnamed_net62	U9-9 U4-6 
/SEL	J5-17 J4-44 U14-10 U4-5 
unnamed_net61	U9-5 U4-4 
/MSG	J5-16 J4-42 U14-4 U4-3 
unnamed_net60	U9-2 U4-2 
/RST	J5-15 J4-40 U14-1 U4-1 
unnamed_net59	U8-12 U3-8 
/ACK	J5-14 J4-38 U13-13 U3-9 
unnamed_net58	U8-9 U3-6 
/BSY	J5-13 J4-36 U13-10 U3-5 
unnamed_net57	U8-5 U3-4 
/ATN	J5-12 J4-32 U13-4 U3-3 
unnamed_net56	U8-2 U3-2 
/P	J5-9 J4-18 U13-1 U3-1 
unnamed_net55	U7-12 U2-8 
/D7	J5-8 J4-16 U12-13 U2-9 
unnamed_net54	U7-9 U2-6 
/D6	J5-7 J4-14 U12-10 U2-5 
unnamed_net53	U7-5 U2-4 
/D5	J5-6 J4-12 U12-4 U2-3 
unnamed_net52	U7-2 U2-2 
/D4	J5-5 J4-10 U12-1 U2-1 
unnamed_net51	U6-12 U1-8 
/D3	J5-4 J4-8 U11-13 U1-9 
unnamed_net50	U6-9 U1-6 
/D2	J5-3 J4-6 U11-10 U1-5 
unnamed_net49	U6-5 U1-4 
/D1	J5-2 J4-4 U11-4 U1-3 
unnamed_net48	U6-2 U1-2 
/D0	J5-1 J4-2 U11-1 U1-1 
+5V	CONN3-1 
unnamed_net47	R104-2 R101-1 U101-17 
unnamed_net46	R105-2 R102-1 U101-16 
unnamed_net45	R106-2 R103-1 U101-15 
unnamed_net44	U102-16 U101-1 
unnamed_net43	U102-15 U101-2 
unnamed_net42	U102-14 U101-3 
unnamed_net41	U102-13 U101-4 
unnamed_net40	U102-12 U101-5 
unnamed_net39	U102-11 U101-6 
unnamed_net38	U102-10 U101-7 
unnamed_net37	U102-9 U101-8 
+3.3V	CONN3-2 R103-2 R102-2 R101-2 U101-9 
P0.2	CONN2-5 
P0.3	CONN2-4 
P2.10	CONN2-2 
unnamed_net36	J3-11 
unnamed_net35	J3-12 
unnamed_net34	J3-13 
D7_R	J3-16 
D4_R	J3-19 
D6_R	J3-17 
D3_R	J3-20 
D5_R	J3-18 
P_R	J3-6 
P_W	J3-7 
RST_R	J3-8 
RST_W	J3-9 
I2C_INTB	U101-19 J3-10 
MSG_W	J3-5 
REQ_W	J3-4 
I/O_W	J3-3 
D3_W	J2-31 
D4_W	J2-32 
D5_W	J2-33 
D6_W	J2-34 
D7_W	J2-35 
P2.8	CONN3-3 J2-36 
D0_R	J2-39 
unnamed_net33	J2-37 
D2_R	J2-40 
D1_R	J2-38 
D0_W	J2-26 
D1_W	J2-27 
D2_W	J2-28 
ATN_R	J2-25 
SEL_W	J2-21 
ACK_R	J2-24 
BSY_R	J2-23 
BSY_W	J2-22 
unnamed_net32	J2-11 
unnamed_net31	J2-12 
unnamed_net30	J2-13 
unnamed_net29	J2-14 
unnamed_net28	J2-15 
I2C_CS	U101-11 J2-16 
TERMPWR_MOSFET	R201-2 J2-19 
SEL_R	J2-20 
unnamed_net27	J2-6 
unnamed_net26	J2-7 
unnamed_net25	J2-8 
unnamed_net24	J2-9 
unnamed_net23	J2-10 
unnamed_net22	J2-3 
unnamed_net21	J2-2 
unnamed_net20	J1-32 
unnamed_net19	J1-33 
unnamed_net18	J1-34 
unnamed_net17	J1-35 
unnamed_net16	J1-36 
unnamed_net15	J1-39 
unnamed_net14	J1-37 
C/D_W	J1-40 
unnamed_net13	J1-38 
unnamed_net12	J1-26 
unnamed_net11	J1-27 
unnamed_net10	J1-29 
unnamed_net9	J1-30 
I2C_SDA0	U101-13 J1-25 
unnamed_net8	J1-21 
I2C_SCL0	U101-12 J1-24 
unnamed_net7	J1-11 
unnamed_net6	J1-12 
RSTOUT	U101-18 J1-14 
unnamed_net5	J1-15 
unnamed_net4	J1-19 
RESET	CONN2-6 J1-17 
P1.31	CONN3-5 J1-20 
unnamed_net3	J1-6 
ADC_TERMPWR_V	R208-2 R207-1 J1-7 
unnamed_net2	J1-8 
ADC_MOLEX_V	R206-2 R205-1 J1-9 
unnamed_net1	J1-10 
5V	Q201-S D201-1 J2-1 J1-1 
3V3	CONN2-3 J3-14 J3-2 J2-30 J2-17 J2-5 J1-28 J1-22 J1-13 J1-18 J1-3 
Vcc	C15-2 C14-2 C13-2 C12-2 C11-2 C10-2 C9-2 C8-2 C7-2 C6-2 C5-2 C4-2 C3-2 C2-2 C1-2 U15-14 U14-14 U13-14 U12-14 U11-14 U10-14 U9-14 U8-14 U7-14 U6-14 U5-14 U4-14 U3-14 U2-14 U1-14 CONN1-1 
GND	R208-1 R206-1 Q202-E J5-10 J4-34 J4-30 J4-22 J4-20 J4-3 J4-5 J4-7 J4-9 J4-11 J4-13 J4-15 J4-17 J4-19 J4-21 J4-41 J4-39 J4-37 J4-35 J4-33 J4-31 J4-29 J4-43 J4-45 J4-47 J4-49 J4-1 C15-1 C14-1 C13-1 \
 C12-1 C11-1 C10-1 C9-1 C8-1 C7-1 C6-1 C5-1 C4-1 C3-1 C2-1 C1-1 U15-7 U14-7 U13-7 U12-7 U11-7 U10-7 U9-7 U8-7 U7-7 U6-7 U5-7 U4-7 U3-7 U2-7 U1-7 R106-1 R105-1 R104-1 CONN3-6 CONN3-4 U102-8 U102-7 \
 U102-6 U102-5 U102-4 U102-3 U102-2 U102-1 U101-10 CONN2-1 J3-15 J3-1 J2-29 J2-18 J2-4 J1-31 J1-23 J1-16 J1-5 J1-4 J1-2 CONN1-2 CONN1-3 
