v 20110115 2
C 30800 58400 1 0 0 7414-1.sym
{
T 31100 59400 5 10 0 0 0 0 1
device=7414
T 31600 59200 5 10 1 1 0 0 1
refdes=U1
T 31100 61800 5 10 0 0 0 0 1
footprint=DIP14
T 30800 58400 5 10 0 0 0 0 1
slot=1
}
C 30800 56900 1 0 0 7414-1.sym
{
T 31100 57900 5 10 0 0 0 0 1
device=7414
T 31500 57700 5 10 1 1 0 0 1
refdes=U1
T 31100 60300 5 10 0 0 0 0 1
footprint=DIP14
T 30800 56900 5 10 0 0 0 0 1
slot=2
}
C 30800 55400 1 0 0 7414-1.sym
{
T 31100 56400 5 10 0 0 0 0 1
device=7414
T 31600 56200 5 10 1 1 0 0 1
refdes=U1
T 31100 58800 5 10 0 0 0 0 1
footprint=DIP14
T 30800 55400 5 10 0 0 0 0 1
slot=3
}
C 30800 53900 1 0 0 7414-1.sym
{
T 31100 54900 5 10 0 0 0 0 1
device=7414
T 31600 54700 5 10 1 1 0 0 1
refdes=U1
T 31100 57300 5 10 0 0 0 0 1
footprint=DIP14
T 30800 53900 5 10 0 0 0 0 1
slot=4
}
C 30800 52400 1 0 0 7414-1.sym
{
T 31100 53400 5 10 0 0 0 0 1
device=7414
T 31600 53200 5 10 1 1 0 0 1
refdes=U2
T 31100 55800 5 10 0 0 0 0 1
footprint=DIP14
}
C 30800 50900 1 0 0 7414-1.sym
{
T 31100 51900 5 10 0 0 0 0 1
device=7414
T 31600 51700 5 10 1 1 0 0 1
refdes=U2
T 31100 54300 5 10 0 0 0 0 1
footprint=DIP14
T 30800 50900 5 10 0 0 0 0 1
slot=2
}
C 30800 49400 1 0 0 7414-1.sym
{
T 31100 50400 5 10 0 0 0 0 1
device=7414
T 31600 50200 5 10 1 1 0 0 1
refdes=U2
T 31100 52800 5 10 0 0 0 0 1
footprint=DIP14
T 30800 49400 5 10 0 0 0 0 1
slot=3
}
C 30800 47900 1 0 0 7414-1.sym
{
T 31100 48900 5 10 0 0 0 0 1
device=7414
T 31600 48700 5 10 1 1 0 0 1
refdes=U2
T 31100 51300 5 10 0 0 0 0 1
footprint=DIP14
T 30800 47900 5 10 0 0 0 0 1
slot=4
}
C 30800 46400 1 0 0 7414-1.sym
{
T 31100 47400 5 10 0 0 0 0 1
device=7414
T 31600 47200 5 10 1 1 0 0 1
refdes=U3
T 31100 49800 5 10 0 0 0 0 1
footprint=DIP14
}
C 30800 44900 1 0 0 7414-1.sym
{
T 31100 45900 5 10 0 0 0 0 1
device=7414
T 31600 45700 5 10 1 1 0 0 1
refdes=U3
T 31100 48300 5 10 0 0 0 0 1
footprint=DIP14
T 30800 44900 5 10 0 0 0 0 1
slot=2
}
C 30800 43400 1 0 0 7414-1.sym
{
T 31100 44400 5 10 0 0 0 0 1
device=7414
T 31600 44200 5 10 1 1 0 0 1
refdes=U3
T 31100 46800 5 10 0 0 0 0 1
footprint=DIP14
T 30800 43400 5 10 0 0 0 0 1
slot=3
}
C 30800 41900 1 0 0 7414-1.sym
{
T 31100 42900 5 10 0 0 0 0 1
device=7414
T 31600 42700 5 10 1 1 0 0 1
refdes=U3
T 31100 45300 5 10 0 0 0 0 1
footprint=DIP14
T 30800 41900 5 10 0 0 0 0 1
slot=4
}
C 30800 40400 1 0 0 7414-1.sym
{
T 31100 41400 5 10 0 0 0 0 1
device=7414
T 31600 41200 5 10 1 1 0 0 1
refdes=U4
T 31100 43800 5 10 0 0 0 0 1
footprint=DIP14
}
C 30800 38900 1 0 0 7414-1.sym
{
T 31100 39900 5 10 0 0 0 0 1
device=7414
T 31600 39700 5 10 1 1 0 0 1
refdes=U4
T 31100 42300 5 10 0 0 0 0 1
footprint=DIP14
T 30800 38900 5 10 0 0 0 0 1
slot=2
}
C 30800 37400 1 0 0 7414-1.sym
{
T 31100 38400 5 10 0 0 0 0 1
device=7414
T 31600 38200 5 10 1 1 0 0 1
refdes=U4
T 31100 40800 5 10 0 0 0 0 1
footprint=DIP14
T 30800 37400 5 10 0 0 0 0 1
slot=3
}
C 30800 35900 1 0 0 7414-1.sym
{
T 31100 36900 5 10 0 0 0 0 1
device=7414
T 31600 36700 5 10 1 1 0 0 1
refdes=U4
T 31100 39300 5 10 0 0 0 0 1
footprint=DIP14
T 30800 35900 5 10 0 0 0 0 1
slot=4
}
C 30800 34400 1 0 0 7414-1.sym
{
T 31100 35400 5 10 0 0 0 0 1
device=7414
T 31600 35200 5 10 1 1 0 0 1
refdes=U5
T 31100 37800 5 10 0 0 0 0 1
footprint=DIP14
}
C 32000 58300 1 0 0 74125-1.sym
{
T 34100 59840 5 10 0 0 0 0 1
device=74125
T 34100 59640 5 10 0 0 0 0 1
footprint=DIP14
T 33700 59300 5 10 1 1 0 6 1
refdes=U6
}
C 32000 56800 1 0 0 74125-1.sym
{
T 34100 58340 5 10 0 0 0 0 1
device=74125
T 34100 58140 5 10 0 0 0 0 1
footprint=DIP14
T 33600 57800 5 10 1 1 0 6 1
refdes=U6
T 32000 56800 5 10 0 0 0 0 1
slot=2
}
C 32000 55300 1 0 0 74125-1.sym
{
T 34100 56840 5 10 0 0 0 0 1
device=74125
T 34100 56640 5 10 0 0 0 0 1
footprint=DIP14
T 33700 56300 5 10 1 1 0 6 1
refdes=U6
T 32000 55300 5 10 0 0 0 0 1
slot=3
}
C 32000 53800 1 0 0 74125-1.sym
{
T 34100 55340 5 10 0 0 0 0 1
device=74125
T 34100 55140 5 10 0 0 0 0 1
footprint=DIP14
T 33600 54800 5 10 1 1 0 6 1
refdes=U6
T 32000 53800 5 10 0 0 0 0 1
slot=4
}
C 32000 52300 1 0 0 74125-1.sym
{
T 34100 53840 5 10 0 0 0 0 1
device=74125
T 34100 53640 5 10 0 0 0 0 1
footprint=DIP14
T 33200 53300 5 10 1 1 0 6 1
refdes=U7
}
C 32000 50800 1 0 0 74125-1.sym
{
T 34100 52340 5 10 0 0 0 0 1
device=74125
T 34100 52140 5 10 0 0 0 0 1
footprint=DIP14
T 33700 51800 5 10 1 1 0 6 1
refdes=U7
T 32000 50800 5 10 0 0 0 0 1
slot=2
}
C 32000 49300 1 0 0 74125-1.sym
{
T 34100 50840 5 10 0 0 0 0 1
device=74125
T 34100 50640 5 10 0 0 0 0 1
footprint=DIP14
T 33700 50300 5 10 1 1 0 6 1
refdes=U7
T 32000 49300 5 10 0 0 0 0 1
slot=3
}
C 32000 47800 1 0 0 74125-1.sym
{
T 34100 49340 5 10 0 0 0 0 1
device=74125
T 34100 49140 5 10 0 0 0 0 1
footprint=DIP14
T 33700 48800 5 10 1 1 0 6 1
refdes=U7
T 32000 47800 5 10 0 0 0 0 1
slot=4
}
C 32000 46300 1 0 0 74125-1.sym
{
T 34100 47840 5 10 0 0 0 0 1
device=74125
T 34100 47640 5 10 0 0 0 0 1
footprint=DIP14
T 33700 47300 5 10 1 1 0 6 1
refdes=U8
}
C 32000 44800 1 0 0 74125-1.sym
{
T 34100 46340 5 10 0 0 0 0 1
device=74125
T 34100 46140 5 10 0 0 0 0 1
footprint=DIP14
T 33700 45800 5 10 1 1 0 6 1
refdes=U8
T 32000 44800 5 10 0 0 0 0 1
slot=2
}
C 32000 43300 1 0 0 74125-1.sym
{
T 34100 44840 5 10 0 0 0 0 1
device=74125
T 34100 44640 5 10 0 0 0 0 1
footprint=DIP14
T 33700 44300 5 10 1 1 0 6 1
refdes=U8
T 32000 43300 5 10 0 0 0 0 1
slot=3
}
C 32000 41800 1 0 0 74125-1.sym
{
T 34100 43340 5 10 0 0 0 0 1
device=74125
T 34100 43140 5 10 0 0 0 0 1
footprint=DIP14
T 33700 42800 5 10 1 1 0 6 1
refdes=U8
T 32000 41800 5 10 0 0 0 0 1
slot=4
}
C 32000 40300 1 0 0 74125-1.sym
{
T 34100 41840 5 10 0 0 0 0 1
device=74125
T 34100 41640 5 10 0 0 0 0 1
footprint=DIP14
T 33700 41300 5 10 1 1 0 6 1
refdes=U9
}
C 32000 38800 1 0 0 74125-1.sym
{
T 34100 40340 5 10 0 0 0 0 1
device=74125
T 34100 40140 5 10 0 0 0 0 1
footprint=DIP14
T 33700 39800 5 10 1 1 0 6 1
refdes=U9
T 32000 38800 5 10 0 0 0 0 1
slot=2
}
C 32000 37300 1 0 0 74125-1.sym
{
T 34100 38840 5 10 0 0 0 0 1
device=74125
T 34100 38640 5 10 0 0 0 0 1
footprint=DIP14
T 33700 38300 5 10 1 1 0 6 1
refdes=U9
T 32000 37300 5 10 0 0 0 0 1
slot=3
}
C 32000 35800 1 0 0 74125-1.sym
{
T 34100 37340 5 10 0 0 0 0 1
device=74125
T 34100 37140 5 10 0 0 0 0 1
footprint=DIP14
T 33700 36800 5 10 1 1 0 6 1
refdes=U9
T 32000 35800 5 10 0 0 0 0 1
slot=4
}
C 32000 34300 1 0 0 74125-1.sym
{
T 34100 35840 5 10 0 0 0 0 1
device=74125
T 34100 35640 5 10 0 0 0 0 1
footprint=DIP14
T 33700 35300 5 10 1 1 0 6 1
refdes=U10
T 32000 34300 5 10 0 0 0 0 1
slot=1
}
C 30800 32900 1 0 0 7414-1.sym
{
T 31100 33900 5 10 0 0 0 0 1
device=7414
T 31600 33700 5 10 1 1 0 0 1
refdes=U5
T 31100 36300 5 10 0 0 0 0 1
footprint=DIP14
T 30800 32900 5 10 0 0 0 0 1
slot=2
}
C 32000 32800 1 0 0 74125-1.sym
{
T 34100 34340 5 10 0 0 0 0 1
device=74125
T 34100 34140 5 10 0 0 0 0 1
footprint=DIP14
T 33700 33800 5 10 1 1 0 6 1
refdes=U10
T 32000 32800 5 10 0 0 0 0 1
slot=2
}
C 39600 60600 1 0 0 7414-1.sym
{
T 39900 61600 5 10 0 0 0 0 1
device=7414
T 40400 61400 5 10 1 1 0 0 1
refdes=U5
T 39900 64000 5 10 0 0 0 0 1
footprint=DIP14
T 39600 60600 5 10 0 0 0 0 1
slot=3
}
C 39600 59300 1 0 0 7414-1.sym
{
T 39900 60300 5 10 0 0 0 0 1
device=7414
T 40400 60100 5 10 1 1 0 0 1
refdes=U5
T 39900 62700 5 10 0 0 0 0 1
footprint=DIP14
T 39600 59300 5 10 0 0 0 0 1
slot=4
}
C 41800 59200 1 0 0 74125-1.sym
{
T 43900 60740 5 10 0 0 0 0 1
device=74125
T 43900 60540 5 10 0 0 0 0 1
footprint=DIP14
T 43500 60200 5 10 1 1 0 6 1
refdes=U10
T 41800 59200 5 10 0 0 0 0 1
slot=4
}
C 41800 60500 1 0 0 74125-1.sym
{
T 43900 62040 5 10 0 0 0 0 1
device=74125
T 43900 61840 5 10 0 0 0 0 1
footprint=DIP14
T 43500 61500 5 10 1 1 0 6 1
refdes=U10
T 41800 60500 5 10 0 0 0 0 1
slot=3
}
N 30000 58900 30800 58900 4
{
T 30100 58900 5 10 1 1 0 0 1
netname=/D0
}
N 30800 57400 30000 57400 4
{
T 30100 57400 5 10 1 1 0 0 1
netname=/D1
}
N 30000 55900 30800 55900 4
{
T 30100 55900 5 10 1 1 0 0 1
netname=/D2
}
N 30000 54400 30800 54400 4
{
T 30100 54400 5 10 1 1 0 0 1
netname=/D3
}
N 30000 52900 30800 52900 4
{
T 30100 52900 5 10 1 1 0 0 1
netname=/D4
}
N 30000 51400 30800 51400 4
{
T 30100 51400 5 10 1 1 0 0 1
netname=/D5
}
N 30000 49900 30800 49900 4
{
T 30100 49900 5 10 1 1 0 0 1
netname=/D6
}
N 30000 48400 30800 48400 4
{
T 30100 48400 5 10 1 1 0 0 1
netname=/D7
}
C 35000 58200 1 0 0 74F38-1.sym
{
T 35500 59100 5 10 0 0 0 0 1
device=74F38
T 35300 59100 5 10 1 1 0 0 1
refdes=U11
T 35500 60700 5 10 0 0 0 0 1
footprint=DIP14
}
C 35000 56700 1 0 0 74F38-1.sym
{
T 35500 57600 5 10 0 0 0 0 1
device=74F38
T 35300 57600 5 10 1 1 0 0 1
refdes=U11
T 35500 59200 5 10 0 0 0 0 1
footprint=DIP14
T 35000 56700 5 10 0 0 0 0 1
slot=2
}
C 35000 55200 1 0 0 74F38-1.sym
{
T 35500 56100 5 10 0 0 0 0 1
device=74F38
T 35300 56100 5 10 1 1 0 0 1
refdes=U11
T 35500 57700 5 10 0 0 0 0 1
footprint=DIP14
T 35000 55200 5 10 0 0 0 0 1
slot=3
}
C 35000 53700 1 0 0 74F38-1.sym
{
T 35500 54600 5 10 0 0 0 0 1
device=74F38
T 35300 54600 5 10 1 1 0 0 1
refdes=U11
T 35500 56200 5 10 0 0 0 0 1
footprint=DIP14
T 35000 53700 5 10 0 0 0 0 1
slot=4
}
C 35000 52200 1 0 0 74F38-1.sym
{
T 35500 53100 5 10 0 0 0 0 1
device=74F38
T 34800 53100 5 10 1 1 0 0 1
refdes=U12
T 35500 54700 5 10 0 0 0 0 1
footprint=DIP14
T 35000 52200 5 10 0 0 0 0 1
slot=1
}
C 35000 50700 1 0 0 74F38-1.sym
{
T 35500 51600 5 10 0 0 0 0 1
device=74F38
T 35300 51600 5 10 1 1 0 0 1
refdes=U12
T 35500 53200 5 10 0 0 0 0 1
footprint=DIP14
T 35000 50700 5 10 0 0 0 0 1
slot=2
}
C 35000 49200 1 0 0 74F38-1.sym
{
T 35500 50100 5 10 0 0 0 0 1
device=74F38
T 35300 50100 5 10 1 1 0 0 1
refdes=U12
T 35500 51700 5 10 0 0 0 0 1
footprint=DIP14
T 35000 49200 5 10 0 0 0 0 1
slot=3
}
C 35000 47700 1 0 0 74F38-1.sym
{
T 35500 48600 5 10 0 0 0 0 1
device=74F38
T 35300 48600 5 10 1 1 0 0 1
refdes=U12
T 35500 50200 5 10 0 0 0 0 1
footprint=DIP14
T 35000 47700 5 10 0 0 0 0 1
slot=4
}
C 35000 46200 1 0 0 74F38-1.sym
{
T 35500 47100 5 10 0 0 0 0 1
device=74F38
T 35300 47100 5 10 1 1 0 0 1
refdes=U13
T 35500 48700 5 10 0 0 0 0 1
footprint=DIP14
T 35000 46200 5 10 0 0 0 0 1
slot=1
}
C 35000 44700 1 0 0 74F38-1.sym
{
T 35500 45600 5 10 0 0 0 0 1
device=74F38
T 35300 45600 5 10 1 1 0 0 1
refdes=U13
T 35500 47200 5 10 0 0 0 0 1
footprint=DIP14
T 35000 44700 5 10 0 0 0 0 1
slot=2
}
C 35000 43200 1 0 0 74F38-1.sym
{
T 35500 44100 5 10 0 0 0 0 1
device=74F38
T 35300 44100 5 10 1 1 0 0 1
refdes=U13
T 35500 45700 5 10 0 0 0 0 1
footprint=DIP14
T 35000 43200 5 10 0 0 0 0 1
slot=3
}
C 35000 41700 1 0 0 74F38-1.sym
{
T 35500 42600 5 10 0 0 0 0 1
device=74F38
T 35300 42600 5 10 1 1 0 0 1
refdes=U13
T 35500 44200 5 10 0 0 0 0 1
footprint=DIP14
T 35000 41700 5 10 0 0 0 0 1
slot=4
}
C 35000 40200 1 0 0 74F38-1.sym
{
T 35500 41100 5 10 0 0 0 0 1
device=74F38
T 35300 41100 5 10 1 1 0 0 1
refdes=U14
T 35500 42700 5 10 0 0 0 0 1
footprint=DIP14
T 35000 40200 5 10 0 0 0 0 1
slot=1
}
C 35000 38700 1 0 0 74F38-1.sym
{
T 35500 39600 5 10 0 0 0 0 1
device=74F38
T 35300 39600 5 10 1 1 0 0 1
refdes=U14
T 35500 41200 5 10 0 0 0 0 1
footprint=DIP14
T 35000 38700 5 10 0 0 0 0 1
slot=2
}
C 35000 37200 1 0 0 74F38-1.sym
{
T 35500 38100 5 10 0 0 0 0 1
device=74F38
T 35300 38100 5 10 1 1 0 0 1
refdes=U14
T 35500 39700 5 10 0 0 0 0 1
footprint=DIP14
T 35000 37200 5 10 0 0 0 0 1
slot=3
}
C 35000 35700 1 0 0 74F38-1.sym
{
T 35500 36600 5 10 0 0 0 0 1
device=74F38
T 35300 36600 5 10 1 1 0 0 1
refdes=U14
T 35500 38200 5 10 0 0 0 0 1
footprint=DIP14
T 35000 35700 5 10 0 0 0 0 1
slot=4
}
C 35000 34200 1 0 0 74F38-1.sym
{
T 35500 35100 5 10 0 0 0 0 1
device=74F38
T 35300 35100 5 10 1 1 0 0 1
refdes=U15
T 35500 36700 5 10 0 0 0 0 1
footprint=DIP14
T 35000 34200 5 10 0 0 0 0 1
slot=1
}
C 35000 32700 1 0 0 74F38-1.sym
{
T 35500 33600 5 10 0 0 0 0 1
device=74F38
T 35300 33600 5 10 1 1 0 0 1
refdes=U15
T 35500 35200 5 10 0 0 0 0 1
footprint=DIP14
T 35000 32700 5 10 0 0 0 0 1
slot=2
}
C 44900 60700 1 0 0 74F38-1.sym
{
T 45400 61600 5 10 0 0 0 0 1
device=74F38
T 45200 61600 5 10 1 1 0 0 1
refdes=U15
T 45400 63200 5 10 0 0 0 0 1
footprint=DIP14
T 44900 60700 5 10 0 0 0 0 1
slot=3
}
C 46800 60700 1 0 0 74F38-1.sym
{
T 47300 61600 5 10 0 0 0 0 1
device=74F38
T 47100 61600 5 10 1 1 0 0 1
refdes=U15
T 47300 63200 5 10 0 0 0 0 1
footprint=DIP14
T 46800 60700 5 10 0 0 0 0 1
slot=4
}
N 30000 46900 30800 46900 4
{
T 30100 46900 5 10 1 1 0 0 1
netname=/P
}
N 30000 45400 30800 45400 4
{
T 30100 45400 5 10 1 1 0 0 1
netname=/ATN
}
N 30000 43900 30800 43900 4
{
T 30100 43900 5 10 1 1 0 0 1
netname=/BSY
}
N 30000 42400 30800 42400 4
{
T 30100 42400 5 10 1 1 0 0 1
netname=/ACK
}
N 30000 40900 30800 40900 4
{
T 30100 40900 5 10 1 1 0 0 1
netname=/RST
}
N 30000 39400 30800 39400 4
{
T 30100 39400 5 10 1 1 0 0 1
netname=/MSG
}
N 30000 37900 30800 37900 4
{
T 30100 37900 5 10 1 1 0 0 1
netname=/SEL
}
N 30000 36400 30800 36400 4
{
T 30100 36400 5 10 1 1 0 0 1
netname=/C/D
}
N 30000 34900 30800 34900 4
{
T 30100 34900 5 10 1 1 0 0 1
netname=/REQ
}
N 30000 33400 30800 33400 4
{
T 30100 33400 5 10 1 1 0 0 1
netname=/I/O
}
N 34000 58900 35000 58900 4
{
T 34000 58900 5 10 1 1 0 0 1
netname=D0
}
N 34000 57400 35000 57400 4
{
T 34000 57400 5 10 1 1 0 0 1
netname=D1
}
N 34000 55900 35000 55900 4
{
T 34000 55900 5 10 1 1 0 0 1
netname=D2
}
N 34000 54400 35000 54400 4
{
T 34000 54400 5 10 1 1 0 0 1
netname=D3
}
N 34000 52900 35000 52900 4
{
T 34000 52900 5 10 1 1 0 0 1
netname=D4
}
N 34000 51400 35000 51400 4
{
T 34000 51400 5 10 1 1 0 0 1
netname=D5
}
N 34000 49900 35000 49900 4
{
T 34000 49900 5 10 1 1 0 0 1
netname=D6
}
N 34000 48400 35000 48400 4
{
T 34000 48400 5 10 1 1 0 0 1
netname=D7
}
N 34000 46900 35000 46900 4
{
T 34000 46900 5 10 1 1 0 0 1
netname=P
}
N 34000 45400 35000 45400 4
{
T 34000 45400 5 10 1 1 0 0 1
netname=ATN
}
N 34000 43900 35000 43900 4
{
T 34000 43900 5 10 1 1 0 0 1
netname=BSY
}
N 34000 42400 35000 42400 4
{
T 34000 42400 5 10 1 1 0 0 1
netname=ACK
}
N 34000 40900 35000 40900 4
{
T 34000 40900 5 10 1 1 0 0 1
netname=RST
}
N 34000 39400 35000 39400 4
{
T 34000 39400 5 10 1 1 0 0 1
netname=MSG
}
N 34000 37900 35000 37900 4
{
T 34000 37900 5 10 1 1 0 0 1
netname=SEL
}
N 34000 36400 35000 36400 4
{
T 34000 36400 5 10 1 1 0 0 1
netname=C/D
}
N 34000 34900 35000 34900 4
{
T 34000 34900 5 10 1 1 0 0 1
netname=REQ
}
N 34000 33400 35000 33400 4
{
T 34000 33400 5 10 1 1 0 0 1
netname=I/O
}
N 34000 58500 35000 58500 4
{
T 34000 58500 5 10 1 1 0 0 1
netname=/RE_D0
}
N 34000 57000 35000 57000 4
{
T 34000 57000 5 10 1 1 0 0 1
netname=/RE_D1
}
N 34000 55500 35000 55500 4
{
T 34000 55500 5 10 1 1 0 0 1
netname=/RE_D2
}
N 34000 54000 35000 54000 4
{
T 34000 54000 5 10 1 1 0 0 1
netname=/RE_D3
}
N 34000 52500 35000 52500 4
{
T 34000 52500 5 10 1 1 0 0 1
netname=/RE_D4
}
N 34000 51000 35000 51000 4
{
T 34000 51000 5 10 1 1 0 0 1
netname=/RE_D5
}
N 34000 49500 35000 49500 4
{
T 34000 49500 5 10 1 1 0 0 1
netname=/RE_D6
}
N 34000 48000 35000 48000 4
{
T 34000 48000 5 10 1 1 0 0 1
netname=/RE_D7
}
N 34000 46500 35000 46500 4
{
T 34000 46500 5 10 1 1 0 0 1
netname=/RE_P
}
N 34000 45000 35000 45000 4
{
T 34000 45000 5 10 1 1 0 0 1
netname=/RE_ATN
}
N 34000 43500 35000 43500 4
{
T 34000 43500 5 10 1 1 0 0 1
netname=/RE_BSY
}
N 34000 42000 35000 42000 4
{
T 34000 42000 5 10 1 1 0 0 1
netname=/RE_ACK
}
N 34000 40500 35000 40500 4
{
T 34000 40500 5 10 1 1 0 0 1
netname=/RE_RST
}
N 34000 39000 35000 39000 4
{
T 34000 39000 5 10 1 1 0 0 1
netname=/RE_MSG
}
N 34000 37500 35000 37500 4
{
T 34000 37500 5 10 1 1 0 0 1
netname=/RE_SEL
}
N 34000 36000 35000 36000 4
{
T 34000 36000 5 10 1 1 0 0 1
netname=/RE_C/D
}
N 34000 34500 35000 34500 4
{
T 34000 34500 5 10 1 1 0 0 1
netname=/RE_REQ
}
N 34000 33000 35000 33000 4
{
T 34000 33000 5 10 1 1 0 0 1
netname=/RE_I/O
}
N 32000 34500 32000 34200 4
N 32000 34200 34000 34200 4
N 34000 34200 34000 34500 4
N 32000 33000 32000 32700 4
N 32000 32700 34000 32700 4
N 34000 32700 34000 33000 4
N 32000 36000 32000 35700 4
N 32000 35700 34000 35700 4
N 34000 35700 34000 36000 4
N 32000 37500 32000 37200 4
N 32000 37200 34000 37200 4
N 34000 37200 34000 37500 4
N 32000 39000 32000 38700 4
N 32000 38700 34000 38700 4
N 34000 38700 34000 39000 4
N 32000 40500 32000 40200 4
N 32000 40200 34000 40200 4
N 34000 40200 34000 40500 4
N 32000 42000 32000 41700 4
N 32000 41700 34000 41700 4
N 34000 41700 34000 42000 4
N 32000 43500 32000 43200 4
N 32000 43200 34000 43200 4
N 34000 43200 34000 43500 4
N 32000 45000 32000 44700 4
N 32000 44700 34000 44700 4
N 34000 44700 34000 45000 4
N 32000 46500 32000 46200 4
N 32000 46200 34000 46200 4
N 34000 46200 34000 46500 4
N 32000 48000 32000 47700 4
N 32000 47700 34000 47700 4
N 34000 47700 34000 48000 4
N 32000 49500 32000 49200 4
N 32000 49200 34000 49200 4
N 34000 49200 34000 49500 4
N 32000 51000 32000 50700 4
N 32000 50700 34000 50700 4
N 34000 50700 34000 51000 4
N 32000 52500 32000 52200 4
N 32000 52200 34000 52200 4
N 34000 52200 34000 52500 4
N 32000 54000 32000 53700 4
N 32000 53700 34000 53700 4
N 34000 53700 34000 54000 4
N 32000 55500 32000 55200 4
N 32000 55200 34000 55200 4
N 34000 55200 34000 55500 4
N 32000 57000 32000 56700 4
N 32000 56700 34000 56700 4
N 34000 56700 34000 57000 4
N 32000 58500 32000 58200 4
N 32000 58200 34000 58200 4
N 34000 58200 34000 58500 4
N 30800 58900 30800 59500 4
N 30800 59500 36300 59500 4
N 36300 59500 36300 58700 4
N 30800 57400 30800 58000 4
N 30800 58000 36300 58000 4
N 36300 58000 36300 57200 4
N 30700 55900 30700 56500 4
N 30700 56500 36300 56500 4
N 36300 56500 36300 55700 4
N 30800 54400 30800 55000 4
N 30800 55000 36300 55000 4
N 36300 55000 36300 54200 4
N 30800 52900 30800 53500 4
N 30800 53500 36300 53500 4
N 36300 53500 36300 52700 4
N 30800 51400 30800 52000 4
N 30800 52000 36300 52000 4
N 36300 51200 36300 52000 4
N 30800 49900 30800 50500 4
N 30800 50500 36300 50500 4
N 36300 50500 36300 49700 4
N 30800 48400 30800 49000 4
N 30800 49000 36300 49000 4
N 36300 49000 36300 48200 4
N 30800 46900 30800 47500 4
N 30800 47500 36300 47500 4
N 36300 47500 36300 46700 4
N 30800 45400 30800 46000 4
N 30800 46000 36300 46000 4
N 36300 46000 36300 45200 4
N 30800 43900 30800 44500 4
N 30800 44500 36300 44500 4
N 36300 44500 36300 43700 4
N 30800 42400 30800 43000 4
N 30800 43000 36300 43000 4
N 36300 43000 36300 42200 4
N 30800 40900 30800 41500 4
N 30800 41500 36300 41500 4
N 36300 41500 36300 40700 4
N 30800 39400 30800 40000 4
N 30800 40000 36300 40000 4
N 36300 40000 36300 39200 4
N 30800 37900 30800 38500 4
N 30800 38500 36300 38500 4
N 36300 38500 36300 37700 4
N 30800 36400 30800 37000 4
N 30800 37000 36300 37000 4
N 36300 37000 36300 36200 4
N 30800 34900 30800 35500 4
N 30800 35500 36300 35500 4
N 36300 35500 36300 34700 4
N 30800 33400 30800 34000 4
N 30800 34000 36300 34000 4
N 36300 34000 36300 33200 4
C 42300 34700 1 0 0 vcc-1.sym
C 42400 33000 1 0 0 gnd-1.sym
C 38800 33600 1 90 0 capacitor-1.sym
{
T 38100 33800 5 10 0 0 90 0 1
device=CAPACITOR
T 38500 33700 5 10 1 1 90 0 1
refdes=C1
T 37900 33800 5 10 0 0 90 0 1
symversion=0.1
T 38800 33400 5 10 1 1 90 0 1
value=100nF
T 38600 34100 5 10 0 1 0 0 1
footprint=CK05_type_Capacitor
}
C 39400 33600 1 90 0 capacitor-1.sym
{
T 38700 33800 5 10 0 0 90 0 1
device=CAPACITOR
T 39100 33700 5 10 1 1 90 0 1
refdes=C2
T 38500 33800 5 10 0 0 90 0 1
symversion=0.1
T 39400 33400 5 10 1 1 90 0 1
value=100nF
T 39100 34000 5 10 0 1 0 0 1
footprint=CK05_type_Capacitor
}
C 40000 33600 1 90 0 capacitor-1.sym
{
T 39300 33800 5 10 0 0 90 0 1
device=CAPACITOR
T 39700 33700 5 10 1 1 90 0 1
refdes=C3
T 39100 33800 5 10 0 0 90 0 1
symversion=0.1
T 40000 33400 5 10 1 1 90 0 1
value=100nF
T 39900 34100 5 10 0 1 0 0 1
footprint=CK05_type_Capacitor
}
C 40600 33600 1 90 0 capacitor-1.sym
{
T 39900 33800 5 10 0 0 90 0 1
device=CAPACITOR
T 40300 33700 5 10 1 1 90 0 1
refdes=C4
T 39700 33800 5 10 0 0 90 0 1
symversion=0.1
T 40600 33400 5 10 1 1 90 0 1
value=100nF
T 40400 34000 5 10 0 1 0 0 1
footprint=CK05_type_Capacitor
}
C 41200 33600 1 90 0 capacitor-1.sym
{
T 40500 33800 5 10 0 0 90 0 1
device=CAPACITOR
T 40900 33700 5 10 1 1 90 0 1
refdes=C5
T 40300 33800 5 10 0 0 90 0 1
symversion=0.1
T 41200 33400 5 10 1 1 90 0 1
value=100nF
T 41000 34000 5 10 0 1 0 0 1
footprint=CK05_type_Capacitor
}
C 41800 33600 1 90 0 capacitor-1.sym
{
T 41100 33800 5 10 0 0 90 0 1
device=CAPACITOR
T 41500 33700 5 10 1 1 90 0 1
refdes=C6
T 40900 33800 5 10 0 0 90 0 1
symversion=0.1
T 41800 33400 5 10 1 1 90 0 1
value=100nF
T 41400 34000 5 10 0 1 0 0 1
footprint=CK05_type_Capacitor
}
C 42400 33600 1 90 0 capacitor-1.sym
{
T 41700 33800 5 10 0 0 90 0 1
device=CAPACITOR
T 42100 33700 5 10 1 1 90 0 1
refdes=C7
T 41500 33800 5 10 0 0 90 0 1
symversion=0.1
T 42400 33400 5 10 1 1 90 0 1
value=100nF
T 42100 34100 5 10 0 1 0 0 1
footprint=CK05_type_Capacitor
}
C 43000 33600 1 90 0 capacitor-1.sym
{
T 42300 33800 5 10 0 0 90 0 1
device=CAPACITOR
T 42700 33700 5 10 1 1 90 0 1
refdes=C8
T 42100 33800 5 10 0 0 90 0 1
symversion=0.1
T 43000 33400 5 10 1 1 90 0 1
value=100nF
T 42700 34100 5 10 0 1 0 0 1
footprint=CK05_type_Capacitor
}
C 43600 33600 1 90 0 capacitor-1.sym
{
T 42900 33800 5 10 0 0 90 0 1
device=CAPACITOR
T 43300 33700 5 10 1 1 90 0 1
refdes=C9
T 42700 33800 5 10 0 0 90 0 1
symversion=0.1
T 43600 33400 5 10 1 1 90 0 1
value=100nF
T 43100 34100 5 10 0 1 0 0 1
footprint=CK05_type_Capacitor
}
C 44200 33600 1 90 0 capacitor-1.sym
{
T 43500 33800 5 10 0 0 90 0 1
device=CAPACITOR
T 43900 33600 5 10 1 1 90 0 1
refdes=C10
T 43300 33800 5 10 0 0 90 0 1
symversion=0.1
T 44200 33400 5 10 1 1 90 0 1
value=100nF
T 42600 34000 5 10 0 1 0 0 1
footprint=CK05_type_Capacitor
}
C 44800 33600 1 90 0 capacitor-1.sym
{
T 44100 33800 5 10 0 0 90 0 1
device=CAPACITOR
T 44500 33600 5 10 1 1 90 0 1
refdes=C11
T 43900 33800 5 10 0 0 90 0 1
symversion=0.1
T 44800 33400 5 10 1 1 90 0 1
value=100nF
T 41100 34100 5 10 0 1 0 0 1
footprint=CK05_type_Capacitor
}
C 45300 33600 1 90 0 capacitor-1.sym
{
T 44600 33800 5 10 0 0 90 0 1
device=CAPACITOR
T 45000 33600 5 10 1 1 90 0 1
refdes=C12
T 44400 33800 5 10 0 0 90 0 1
symversion=0.1
T 45300 33400 5 10 1 1 90 0 1
value=100nF
T 40100 34300 5 10 0 1 0 0 1
footprint=CK05_type_Capacitor
}
C 45900 33600 1 90 0 capacitor-1.sym
{
T 45200 33800 5 10 0 0 90 0 1
device=CAPACITOR
T 45600 33600 5 10 1 1 90 0 1
refdes=C13
T 45000 33800 5 10 0 0 90 0 1
symversion=0.1
T 45900 33400 5 10 1 1 90 0 1
value=100nF
T 45100 34100 5 10 0 1 0 0 1
footprint=CK05_type_Capacitor
}
C 46500 33600 1 90 0 capacitor-1.sym
{
T 45800 33800 5 10 0 0 90 0 1
device=CAPACITOR
T 46200 33600 5 10 1 1 90 0 1
refdes=C14
T 45600 33800 5 10 0 0 90 0 1
symversion=0.1
T 46500 33400 5 10 1 1 90 0 1
value=100nF
T 43900 34100 5 10 0 1 0 0 1
footprint=CK05_type_Capacitor
}
C 47100 33600 1 90 0 capacitor-1.sym
{
T 46400 33800 5 10 0 0 90 0 1
device=CAPACITOR
T 46800 33600 5 10 1 1 90 0 1
refdes=C15
T 46200 33800 5 10 0 0 90 0 1
symversion=0.1
T 47100 33400 5 10 1 1 90 0 1
value=100nF
T 40200 34500 5 10 0 1 0 0 1
footprint=CK05_type_Capacitor
}
N 38600 34500 46900 34500 4
N 42500 34700 42500 34500 4
N 38600 33600 46900 33600 4
N 42500 33300 42500 33600 4
C 40400 48500 1 0 0 header50-1.sym
{
T 40650 59200 5 10 0 0 0 0 1
device=HEADER50
T 41000 58600 5 10 1 1 0 0 1
refdes=J4
T 40800 48300 5 10 1 1 0 0 1
description=SCSI
T 40800 53200 5 10 0 1 0 0 1
footprint=HEADER50_2
}
N 40400 58300 40000 58300 4
N 40000 58300 40000 47800 4
N 40000 48700 40400 48700 4
N 40000 49100 40400 49100 4
N 40000 49500 40400 49500 4
N 40000 49900 40400 49900 4
N 40000 52700 40400 52700 4
N 40000 52300 40400 52300 4
N 40000 51900 40400 51900 4
N 40000 51500 40400 51500 4
N 40000 51100 40400 51100 4
N 40000 50700 40400 50700 4
N 40400 50300 40000 50300 4
N 40000 54300 40400 54300 4
N 40000 54700 40400 54700 4
N 40000 55100 40400 55100 4
N 40400 55500 40000 55500 4
N 40000 55900 40400 55900 4
N 40000 56300 40400 56300 4
N 40000 56700 40400 56700 4
N 40000 57100 40400 57100 4
N 40400 57500 40000 57500 4
N 40000 57900 40400 57900 4
C 39900 47500 1 0 0 gnd-1.sym
C 43200 47500 1 0 0 gnd-1.sym
N 41800 54700 43300 54700 4
N 43300 54700 43300 47800 4
N 41800 54300 43300 54300 4
N 41800 52700 43300 52700 4
N 41800 51900 43300 51900 4
C 47200 51300 1 0 1 connector20-1.sym
{
T 47100 57500 5 10 1 1 0 6 1
refdes=J5
T 46500 57800 5 10 0 0 0 6 1
device=CONNECTOR_20
T 46600 51000 5 10 1 1 0 0 1
description=SCSI Test
T 47000 53800 5 10 0 1 0 0 1
footprint=JUMPER20
}
N 41800 58300 44900 58300 4
{
T 41900 58300 5 10 1 1 0 0 1
netname=/D0
}
N 44900 58300 44900 57200 4
N 44900 57200 45500 57200 4
N 41800 57900 44800 57900 4
{
T 41900 57900 5 10 1 1 0 0 1
netname=/D1
}
N 44800 57900 44800 56900 4
N 45500 56900 44800 56900 4
N 41800 57500 44700 57500 4
{
T 41900 57500 5 10 1 1 0 0 1
netname=/D2
}
N 44700 57500 44700 56600 4
N 44700 56600 45500 56600 4
N 41800 57100 44600 57100 4
{
T 41900 57100 5 10 1 1 0 0 1
netname=/D3
}
N 44600 57100 44600 56300 4
N 44600 56300 45500 56300 4
N 41800 56700 44500 56700 4
{
T 41900 56700 5 10 1 1 0 0 1
netname=/D4
}
N 44500 56700 44500 56000 4
N 44500 56000 45500 56000 4
N 41800 56300 44400 56300 4
{
T 41900 56300 5 10 1 1 0 0 1
netname=/D5
}
N 44400 55700 44400 56300 4
N 44400 55700 45500 55700 4
N 41800 55900 44300 55900 4
{
T 41900 55900 5 10 1 1 0 0 1
netname=/D6
}
N 44300 55900 44300 55400 4
N 44300 55400 45500 55400 4
N 41800 55500 44200 55500 4
{
T 41900 55500 5 10 1 1 0 0 1
netname=/D7
}
N 44200 55500 44200 55100 4
N 44200 55100 45500 55100 4
N 41800 55100 44100 55100 4
{
T 41900 55100 5 10 1 1 0 0 1
netname=/P
}
N 44100 55100 44100 54800 4
N 44100 54800 45500 54800 4
N 43800 53500 43800 54200 4
N 43800 54200 45500 54200 4
N 43300 54500 45500 54500 4
T 29600 59800 9 10 1 0 0 0 1
PHY SCSI
T 33800 59800 9 10 1 0 0 0 1
uC SCSI Signals
N 45500 53900 44100 53900 4
N 44100 53900 44100 52300 4
N 44100 52300 41800 52300 4
{
T 41900 52300 5 10 1 1 0 0 1
netname=/ATN
}
N 45500 53600 44200 53600 4
N 44200 53600 44200 51500 4
N 44200 51500 41800 51500 4
{
T 41900 51500 5 10 1 1 0 0 1
netname=/BSY
}
N 45500 53300 44300 53300 4
N 44300 53300 44300 51100 4
N 44300 51100 41800 51100 4
{
T 41900 51100 5 10 1 1 0 0 1
netname=/ACK
}
N 45500 53000 44400 53000 4
N 44400 53000 44400 50700 4
N 44400 50700 41800 50700 4
{
T 41900 50700 5 10 1 1 0 0 1
netname=/RST
}
N 45500 52700 44500 52700 4
N 44500 52700 44500 50300 4
N 44500 50300 41800 50300 4
{
T 41900 50300 5 10 1 1 0 0 1
netname=/MSG
}
N 45500 52400 44600 52400 4
N 44600 52400 44600 49900 4
N 44600 49900 41800 49900 4
{
T 41900 49900 5 10 1 1 0 0 1
netname=/SEL
}
N 45500 52100 44700 52100 4
N 44700 52100 44700 49500 4
N 44700 49500 41800 49500 4
{
T 41900 49500 5 10 1 1 0 0 1
netname=/C/D
}
N 45500 51800 44800 51800 4
N 44800 51800 44800 49100 4
N 44800 49100 41800 49100 4
{
T 41900 49100 5 10 1 1 0 0 1
netname=/REQ
}
N 45500 51500 44900 51500 4
N 44900 51500 44900 48700 4
N 44900 48700 41800 48700 4
{
T 41900 48700 5 10 1 1 0 0 1
netname=/I/O
}
N 41800 53500 43800 53500 4
{
T 41900 53500 5 10 1 1 0 0 1
netname=TERMPWR
}
T 29100 61200 9 26 1 0 0 0 9
- Hardware parity calculator?? 74HC280?
- Reset Circuit
- Onboard SCSI Terminator? (pull up resistor with uC control relay)?
- Bank of 8 Configuration DIP Switches and LEDs (possibly via 3-8 encoders)
- MMC Card
- Serial Port (High speed USB-TTL serial converter w/onboard USB)  
  Useful for debugging file transfer + USB kernel module file driver
- ACK, REQ, SEL, BSY, RST Resistors (From AVR RAM disk circuit - shouldn't be needed)
- 5v to 3.3v regulator?
C 42872 30498 1 0 0 cvstitleblock-1.sym
{
T 43472 30898 5 10 1 1 0 0 1
date=15/07/2013
T 47372 30898 5 10 1 1 0 0 1
rev=1.0
T 47372 30598 5 10 1 1 0 0 1
auth=Andrew Jessop
T 43672 31198 5 10 1 1 0 0 1
fname=$Source$
T 46672 31598 5 14 1 1 0 4 1
title=SCSI to MMC Adaptor
}
B 25000 30500 25500 36000 3 0 0 0 -1 -1 0 -1 -1 -1 -1 -1
N 46000 41200 44800 41200 4
{
T 45000 41200 5 10 1 1 0 0 1
netname=TERMPWR
}
C 44600 43000 1 270 0 diode-1.sym
{
T 45200 42600 5 10 0 0 270 0 1
device=DIODE
T 44500 42400 5 10 1 1 90 0 1
refdes=D201
T 44900 42600 5 10 0 1 0 0 1
footprint=DIODE_LAY 400
}
N 44800 45000 44800 45400 4
{
T 45100 45500 5 10 1 1 0 0 1
netname=5V_MOLEX
}
C 43200 40500 1 180 0 resistor-1.sym
{
T 42900 40100 5 10 0 0 180 0 1
device=RESISTOR
T 43000 40200 5 10 1 1 180 0 1
refdes=R201
T 42700 40500 5 10 0 1 0 0 1
footprint=AXIAL_LAY 400
}
C 44700 45000 1 270 0 resistor-1.sym
{
T 45100 44700 5 10 0 0 270 0 1
device=RESISTOR
T 44700 44500 5 10 1 1 90 0 1
refdes=R202
T 44800 44500 5 10 0 1 0 0 1
footprint=AXIAL_LAY 400
}
T 45400 41500 9 10 1 0 0 0 1
TERMPWR current sense
T 45400 44500 9 10 1 0 0 0 1
current sense
N 44800 43100 46000 43100 4
{
T 45800 43100 5 10 1 1 0 0 1
netname=5V
}
C 44300 43300 1 0 0 pmos-3.sym
{
T 44900 43800 5 10 0 0 0 0 1
device=PMOS_TRANSISTOR
T 44900 43500 5 10 1 1 0 0 1
refdes=Q201
T 44700 43700 5 10 1 1 0 0 1
footprint=TO220
}
C 44900 41200 1 90 0 resistor-1.sym
{
T 44500 41500 5 10 0 0 90 0 1
device=RESISTOR
T 44600 41600 5 10 1 1 90 0 1
refdes=R203
T 44700 41800 5 10 0 1 0 0 1
footprint=AXIAL_LAY 400
}
C 44000 44100 1 90 0 resistor-1.sym
{
T 43600 44400 5 10 0 0 90 0 1
device=RESISTOR
T 43700 44400 5 10 1 1 90 0 1
refdes=R204
T 43800 44600 5 10 0 1 0 0 1
footprint=AXIAL_LAY 400
}
C 43400 39900 1 0 0 npn-2.sym
{
T 44000 40400 5 10 0 0 0 0 1
device=NPN_TRANSISTOR
T 43500 40900 5 10 1 1 0 0 1
refdes=Q202
T 43700 40500 5 10 0 1 0 0 1
footprint=TO92
}
N 44800 43000 44800 43300 4
N 44300 43500 43900 43500 4
N 43900 40900 43900 44100 4
N 43900 45000 43900 45400 4
N 42500 45400 46000 45400 4
N 43200 40400 43400 40400 4
N 41000 40400 42300 40400 4
{
T 40600 40500 5 10 1 1 0 0 1
netname=TERMPWR_MOSFET
}
N 43900 39900 43900 39400 4
C 43800 39100 1 0 0 gnd-1.sym
N 44800 44100 46000 44100 4
N 44800 42100 46000 42100 4
C 42600 44500 1 90 0 resistor-1.sym
{
T 42200 44800 5 10 0 0 90 0 1
device=RESISTOR
T 42300 44700 5 10 1 1 90 0 1
refdes=R205
T 42200 44100 5 10 0 1 0 0 1
footprint=AXIAL_LAY 400
}
C 42600 43600 1 90 0 resistor-1.sym
{
T 42200 43900 5 10 0 0 90 0 1
device=RESISTOR
T 42300 43800 5 10 1 1 90 0 1
refdes=R206
T 42500 44000 5 10 0 1 0 0 1
footprint=AXIAL_LAY 400
}
C 44900 40300 1 90 0 resistor-1.sym
{
T 44500 40600 5 10 0 0 90 0 1
device=RESISTOR
T 44600 40500 5 10 1 1 90 0 1
refdes=R207
T 44700 40900 5 10 0 1 0 0 1
footprint=AXIAL_LAY 400
}
C 44900 39400 1 90 0 resistor-1.sym
{
T 44500 39700 5 10 0 0 90 0 1
device=RESISTOR
T 44600 39600 5 10 1 1 90 0 1
refdes=R208
T 44800 39800 5 10 0 1 0 0 1
footprint=AXIAL_LAY 400
}
C 42400 43300 1 0 0 gnd-1.sym
C 44700 39100 1 0 0 gnd-1.sym
N 42500 44500 41000 44500 4
{
T 40700 44600 5 10 1 1 0 0 1
netname=ADC_MOLEX_V
}
N 44800 40300 46000 40300 4
{
T 45000 40300 5 10 1 1 0 0 1
netname=ADC_TERMPWR_V
}
