v 20110115 2
C 54500 63300 1 0 1 connector4-1.sym
{
T 52700 64200 5 10 0 0 0 6 1
device=CONNECTOR_4
T 54500 64700 5 10 1 1 0 6 1
refdes=CONN1
T 54500 63300 5 10 1 1 0 0 1
description=Molex
T 54200 63800 5 10 0 1 0 0 1
footprint=JUMPER4
}
C 52100 63200 1 0 0 gnd-1.sym
N 52800 64100 52200 64100 4
N 52200 64100 52200 63500 4
N 52800 63800 52200 63800 4
N 52200 64400 52800 64400 4
C 41500 52700 1 0 0 header40-2.sym
{
T 41750 61200 5 10 0 1 0 0 1
device=HEADER40
T 42100 60800 5 10 1 1 0 0 1
refdes=J1
T 42100 55200 5 10 0 1 0 0 1
footprint=HEADER40_2
}
C 47600 52700 1 0 0 header40-2.sym
{
T 47850 61200 5 10 0 1 0 0 1
device=HEADER40
T 48200 60800 5 10 1 1 0 0 1
refdes=J2
T 48400 57300 5 10 0 1 0 0 1
footprint=HEADER40_2
}
C 53500 56700 1 0 0 header20-2.sym
{
T 53750 56450 5 10 0 1 0 0 1
device=HEADER20
T 54100 60800 5 10 1 1 0 0 1
refdes=J3
T 54100 59900 5 10 0 1 0 0 1
footprint=HEADER20_2
}
N 41500 60500 40500 60500 4
{
T 40400 60600 5 10 1 1 0 0 1
netname=5V
}
N 41500 60100 40500 60100 4
{
T 40400 60200 5 10 1 1 0 0 1
netname=3V3
}
N 41500 59700 40500 59700 4
{
T 40300 59800 5 10 1 1 0 0 1
netname=GND
}
N 41500 59300 40500 59300 4
{
T 39300 59400 5 10 1 1 0 0 1
netname=ADC_TERMPWR_V
}
N 41500 58900 40500 58900 4
{
T 39600 59000 5 10 1 1 0 0 1
netname=ADC_MOLEX_V
}
N 41500 58500 40500 58500 4
N 41500 58100 40500 58100 4
{
T 40300 58200 5 10 1 1 0 0 1
netname=3V3
}
N 41500 57700 40500 57700 4
N 41500 57300 40500 57300 4
{
T 40200 57400 5 10 1 1 0 0 1
netname=RESET
}
N 41500 56900 40500 56900 4
N 41500 56500 40500 56500 4
N 41500 56100 40500 56100 4
{
T 40300 56200 5 10 1 1 0 0 1
netname=GND
}
N 41500 55700 40500 55700 4
{
T 40000 55700 5 10 1 1 0 0 1
netname=I2C_SDA0
}
N 41500 55300 40500 55300 4
N 41500 54900 40500 54900 4
N 41500 54500 40500 54500 4
{
T 40400 54500 5 10 1 1 0 0 1
netname=GND
}
N 41500 54100 40500 54100 4
N 41500 53700 40500 53700 4
N 41500 53300 40500 53300 4
N 41500 52900 40500 52900 4
N 43900 60500 42900 60500 4
{
T 43500 60500 5 10 1 1 0 0 1
netname=GND
}
N 43900 60100 42900 60100 4
{
T 43700 60100 5 10 1 1 0 0 1
netname=GND
}
N 43900 59700 42900 59700 4
N 43900 59300 42900 59300 4
N 43900 58900 42900 58900 4
N 43900 58500 42900 58500 4
N 43900 58100 42900 58100 4
{
T 43700 58100 5 10 1 1 0 0 1
netname=RSTOUT
}
N 43900 57700 42900 57700 4
{
T 43700 57700 5 10 1 1 0 0 1
netname=GND
}
N 43900 57300 42900 57300 4
{
T 43700 57400 5 10 1 1 0 0 1
netname=3V3
}
N 43900 56900 42900 56900 4
{
T 43600 56900 5 10 1 1 0 0 1
netname=P1.31
}
N 43900 56500 42900 56500 4
{
T 43700 56600 5 10 1 1 0 0 1
netname=3V3
}
N 43900 56100 42900 56100 4
{
T 43600 56100 5 10 1 1 0 0 1
netname=I2C_SCL0
}
N 43900 55700 42900 55700 4
N 43900 55300 42900 55300 4
{
T 43700 55300 5 10 1 1 0 0 1
netname=3V3
}
N 43900 54900 42900 54900 4
N 43900 54500 42900 54500 4
N 43900 54100 42900 54100 4
N 43900 53700 42900 53700 4
N 43900 53300 42900 53300 4
N 43900 52900 42900 52900 4
{
T 43700 52900 5 10 1 1 0 0 1
netname=C/D_W
}
N 47600 60500 46600 60500 4
{
T 46600 60600 5 10 1 1 0 0 1
netname=5V
}
N 47600 60100 46600 60100 4
N 47600 59700 46600 59700 4
{
T 46500 59800 5 10 1 1 0 0 1
netname=3V3
}
N 47600 59300 46600 59300 4
N 47600 58900 46600 58900 4
N 47600 58500 46600 58500 4
N 47600 58100 46600 58100 4
N 47600 57700 46600 57700 4
N 47600 57300 46600 57300 4
{
T 46400 57400 5 10 1 1 0 0 1
netname=3V3
}
N 47600 56900 46600 56900 4
{
T 45400 57000 5 10 1 1 0 0 1
netname=TERMPWR_MOSFET
}
N 47600 56500 46600 56500 4
{
T 46200 56600 5 10 1 1 0 0 1
netname=SEL_W
}
N 47600 56100 46600 56100 4
{
T 46300 56200 5 10 1 1 0 0 1
netname=BSY_R
}
N 47600 55700 46600 55700 4
{
T 46400 55800 5 10 1 1 0 0 1
netname=ATN_R
}
N 47600 55300 46600 55300 4
{
T 46500 55300 5 10 1 1 0 0 1
netname=D1_W
}
N 47600 54900 46600 54900 4
{
T 46500 55000 5 10 1 1 0 0 1
netname=GND
}
N 47600 54500 46600 54500 4
{
T 46500 54500 5 10 1 1 0 0 1
netname=D3_W
}
N 47600 54100 46600 54100 4
{
T 46500 54100 5 10 1 1 0 0 1
netname=D5_W
}
N 47600 53700 46600 53700 4
{
T 46500 53700 5 10 1 1 0 0 1
netname=D7_W
}
N 47600 53300 46600 53300 4
N 47600 52900 46600 52900 4
{
T 46500 52900 5 10 1 1 0 0 1
netname=D0_R
}
N 50000 60500 49000 60500 4
N 50000 60100 49000 60100 4
{
T 49700 60200 5 10 1 1 0 0 1
netname=GND
}
N 50000 59700 49000 59700 4
N 50000 59300 49000 59300 4
N 50000 58900 49000 58900 4
N 50000 58500 49000 58500 4
N 50000 58100 49000 58100 4
N 50000 57700 49000 57700 4
{
T 49700 57700 5 10 1 1 0 0 1
netname=I2C_CS
}
N 50000 57300 49000 57300 4
{
T 49700 57400 5 10 1 1 0 0 1
netname=GND
}
N 50000 56900 49000 56900 4
{
T 49700 57000 5 10 1 1 0 0 1
netname=SEL_R
}
N 50000 56500 49000 56500 4
{
T 49600 56500 5 10 1 1 0 0 1
netname=BSY_W
}
N 50000 56100 49000 56100 4
{
T 49700 56100 5 10 1 1 0 0 1
netname=ACK_R
}
N 50000 55700 49000 55700 4
{
T 49700 55700 5 10 1 1 0 0 1
netname=D0_W
}
N 50000 55300 49000 55300 4
{
T 49600 55300 5 10 1 1 0 0 1
netname=D2_W
}
N 50000 54900 49000 54900 4
{
T 49800 55000 5 10 1 1 0 0 1
netname=3V3
}
N 50000 54500 49000 54500 4
{
T 49800 54500 5 10 1 1 0 0 1
netname=D4_W
}
N 50000 54100 49000 54100 4
{
T 49700 54100 5 10 1 1 0 0 1
netname=D6_W
}
N 50000 53700 49000 53700 4
{
T 49800 53700 5 10 1 1 0 0 1
netname=P2.8
}
N 50000 53300 49000 53300 4
{
T 49800 53300 5 10 1 1 0 0 1
netname=D1_R
}
N 50000 52900 49000 52900 4
{
T 49800 52900 5 10 1 1 0 0 1
netname=D2_R
}
N 53500 60500 52500 60500 4
{
T 52400 60600 5 10 1 1 0 0 1
netname=GND
}
N 53500 60100 52500 60100 4
{
T 52300 60100 5 10 1 1 0 0 1
netname=I/O_W
}
N 53500 59700 52500 59700 4
{
T 52300 59700 5 10 1 1 0 0 1
netname=MSG_W
}
N 53500 59300 52500 59300 4
{
T 52300 59400 5 10 1 1 0 0 1
netname=P_W
}
N 53500 58900 52500 58900 4
{
T 52300 59000 5 10 1 1 0 0 1
netname=RST_W
}
N 53500 58500 52500 58500 4
N 53500 58100 52500 58100 4
N 53500 57700 52500 57700 4
{
T 52400 57700 5 10 1 1 0 0 1
netname=GND
}
N 53500 57300 52500 57300 4
{
T 52400 57300 5 10 1 1 0 0 1
netname=D6_R
}
N 53500 56900 52500 56900 4
{
T 52400 56900 5 10 1 1 0 0 1
netname=D4_R
}
N 55900 60500 54900 60500 4
{
T 55700 60600 5 10 1 1 0 0 1
netname=3V3
}
N 55900 59700 54900 59700 4
{
T 55800 59800 5 10 1 1 0 0 1
netname=P_R
}
N 55900 59300 54900 59300 4
{
T 55600 59400 5 10 1 1 0 0 1
netname=RST_R
}
N 54900 58900 55900 58900 4
{
T 55600 58900 5 10 1 1 0 0 1
netname=I2C_INTB
}
N 55900 58500 54900 58500 4
N 55900 58100 54900 58100 4
{
T 55700 58100 5 10 1 1 0 0 1
netname=3V3
}
N 55900 57700 54900 57700 4
{
T 55700 57700 5 10 1 1 0 0 1
netname=D7_R
}
N 55900 57300 54900 57300 4
{
T 55700 57300 5 10 1 1 0 0 1
netname=D5_R
}
N 55900 56900 54900 56900 4
{
T 55700 56900 5 10 1 1 0 0 1
netname=D3_R
}
T 41000 60500 9 10 1 0 0 0 1
5V
T 42900 60500 9 10 1 0 0 0 1
GND
T 41000 60100 9 10 1 0 0 0 1
3V3
T 42900 60100 9 10 1 0 0 0 1
GND
T 41000 59700 9 10 1 0 0 0 1
GND
T 42900 59700 9 10 1 0 0 0 1
P0.26
T 41000 59300 9 10 1 0 0 0 1
P0.25
T 42900 59300 9 10 1 0 0 0 1
P0.24
T 41000 58900 9 10 1 0 0 0 1
P0.23
T 42900 58900 9 10 1 0 0 0 1
VDDA
T 41000 58500 9 10 1 0 0 0 1
VSSA
T 42900 58500 9 10 1 0 0 0 1
VREF+
T 41000 58100 9 10 1 0 0 0 1
3V3
T 42900 58100 9 10 1 0 0 0 1
RSTOUT
T 41000 57700 9 10 1 0 0 0 1
VREF-
T 42900 57700 9 10 1 0 0 0 1
GND
T 41000 57300 9 10 1 0 0 0 1
RESET
T 42900 57300 9 10 1 0 0 0 1
3V3
T 41000 56900 9 10 1 0 0 0 1
VBAT
T 42900 56900 9 10 1 0 0 0 1
P1.31
T 41000 56500 9 10 1 0 0 0 1
P1.30
T 41000 56100 9 10 1 0 0 0 1
GND
T 41000 55700 9 10 1 0 0 0 1
P0.27
T 41000 55300 9 10 1 0 0 0 1
P3.25
T 41000 54900 9 10 1 0 0 0 1
P0.29
T 41000 54500 9 10 1 0 0 0 1
GND
T 41000 54100 9 10 1 0 0 0 1
P1.19
T 41000 53700 9 10 1 0 0 0 1
P1.21
T 41000 53300 9 10 1 0 0 0 1
P1.23
T 41000 52900 9 10 1 0 0 0 1
P1.25
T 42900 56500 9 10 1 0 0 0 1
3V3
T 42900 56100 9 10 1 0 0 0 1
P0.28
T 42900 55700 9 10 1 0 0 0 1
P3.26
T 42900 55300 9 10 1 0 0 0 1
3V3
T 42900 54900 9 10 1 0 0 0 1
P0.30
T 42900 54500 9 10 1 0 0 0 1
P1.18
T 42900 54100 9 10 1 0 0 0 1
P1.20
T 42900 53700 9 10 1 0 0 0 1
P1.22
T 42900 53300 9 10 1 0 0 0 1
P1.24
T 42900 52900 9 10 1 0 0 0 1
P1.26
T 47200 60500 9 10 1 0 0 0 1
5V
T 47200 60100 9 10 1 0 0 0 1
P0.2
T 47200 59700 9 10 1 0 0 0 1
3V3
T 47200 59300 9 10 1 0 0 0 1
P1.1
T 47200 58900 9 10 1 0 0 0 1
P1.8
T 49000 58900 9 10 1 0 0 0 1
P1.9
T 49000 59300 9 10 1 0 0 0 1
P1.4
T 49000 59700 9 10 1 0 0 0 1
P1.0
T 49000 60100 9 10 1 0 0 0 1
GND
T 49000 60500 9 10 1 0 0 0 1
P0.3
T 47200 58500 9 10 1 0 0 0 1
P1.10
T 47200 58100 9 10 1 0 0 0 1
P1.15
T 47200 57700 9 10 1 0 0 0 1
P1.17
T 47200 57300 9 10 1 0 0 0 1
3V3
T 47200 56900 9 10 1 0 0 0 1
P4.28
T 49000 58500 9 10 1 0 0 0 1
P1.14
T 49000 58100 9 10 1 0 0 0 1
P1.16
T 49000 57700 9 10 1 0 0 0 1
P4.29
T 49000 57300 9 10 1 0 0 0 1
GND
T 49000 56900 9 10 1 0 0 0 1
P0.4
T 47200 56500 9 10 1 0 0 0 1
P0.5
T 47200 56100 9 10 1 0 0 0 1
P0.7
T 47200 55700 9 10 1 0 0 0 1
P0.9
T 47200 55300 9 10 1 0 0 0 1
P2.1
T 47200 54900 9 10 1 0 0 0 1
GND
T 49000 56500 9 10 1 0 0 0 1
P0.6
T 49000 56100 9 10 1 0 0 0 1
P0.8
T 49000 55700 9 10 1 0 0 0 1
P2.0
T 49000 55300 9 10 1 0 0 0 1
P2.2
T 49000 54900 9 10 1 0 0 0 1
3V3
T 47200 54500 9 10 1 0 0 0 1
P2.3
T 49000 54500 9 10 1 0 0 0 1
P2.4
T 47200 54100 9 10 1 0 0 0 1
P2.5
T 49000 54100 9 10 1 0 0 0 1
P2.6
T 47200 53700 9 10 1 0 0 0 1
P2.7
T 49000 53700 9 10 1 0 0 0 1
P2.8
T 47200 53300 9 10 1 0 0 0 1
P2.9
T 49000 53300 9 10 1 0 0 0 1
P0.16
T 47200 52900 9 10 1 0 0 0 1
P0.15
T 49000 52900 9 10 1 0 0 0 1
P0.17
T 53100 60500 9 10 1 0 0 0 1
GND
T 53100 60100 9 10 1 0 0 0 1
P1.27
T 53100 59700 9 10 1 0 0 0 1
P1.29
T 53100 59300 9 10 1 0 0 0 1
P0.1
T 53100 58900 9 10 1 0 0 0 1
P0.11
T 53100 58500 9 10 1 0 0 0 1
P2.12
T 53100 58100 9 10 1 0 0 0 1
P2.10
T 53100 57700 9 10 1 0 0 0 1
GND
T 53100 57300 9 10 1 0 0 0 1
P0.21
T 53100 56900 9 10 1 0 0 0 1
P0.19
T 54900 60500 9 10 1 0 0 0 1
3V3
T 54900 60100 9 10 1 0 0 0 1
P1.28
T 54900 59700 9 10 1 0 0 0 1
P0.0
T 54900 59300 9 10 1 0 0 0 1
P0.10
T 54900 58900 9 10 1 0 0 0 1
P2.13
T 54900 58500 9 10 1 0 0 0 1
P2.11
T 54900 58100 9 10 1 0 0 0 1
3V3
T 54900 57700 9 10 1 0 0 0 1
P0.22
T 54900 57300 9 10 1 0 0 0 1
P0.20
T 54900 56900 9 10 1 0 0 0 1
P0.18
N 54900 60100 55900 60100 4
{
T 55600 60100 5 10 1 1 0 0 1
netname=REQ_W
}
C 40800 62900 1 0 0 connector6-1.sym
{
T 42600 64700 5 10 0 0 0 0 1
device=CONNECTOR_6
T 40900 64900 5 10 1 1 0 0 1
refdes=CONN2
T 40900 62500 5 10 1 1 0 0 1
description=USB UART
T 41100 64300 5 10 0 1 0 0 1
footprint=JUMPER6
}
N 43600 64600 42500 64600 4
{
T 43100 64600 5 10 1 1 0 0 1
netname=GND
}
N 43600 64300 42500 64300 4
{
T 43100 64300 5 10 1 1 0 0 1
netname=P2.10
}
N 43600 64000 42500 64000 4
{
T 43100 64000 5 10 1 1 0 0 1
netname=3V3
}
N 43600 63700 42500 63700 4
{
T 43100 63700 5 10 1 1 0 0 1
netname=P0.3
}
N 43600 63400 42500 63400 4
{
T 43100 63400 5 10 1 1 0 0 1
netname=P0.2
}
N 43600 63100 42500 63100 4
{
T 43100 63100 5 10 1 1 0 0 1
netname=RESET
}
T 41600 64600 9 10 1 0 0 0 1
GND
T 41600 64300 9 10 1 0 0 0 1
CTS
T 41600 64000 9 10 1 0 0 0 1
VCC
T 41600 63700 9 10 1 0 0 0 1
TX
T 41600 63400 9 10 1 0 0 0 1
RX
T 41600 63100 9 10 1 0 0 0 1
DTR
T 41000 65200 9 10 1 0 0 0 3
NOTE: In lpc21isp_148x.c this is expected to
 be the RTS pin, so I'll have to make the changes
 and recompile to support the CTS pin.
T 43800 63700 9 10 1 0 0 0 1
RXD0
T 43800 63400 9 10 1 0 0 0 1
TXD0
C 52000 64400 1 0 0 generic-power.sym
{
T 52200 64650 5 10 1 1 0 3 1
netname=5V_MOLEX
}
C 62000 51500 1 0 0 mcp23017.sym
{
T 62000 51500 5 1 0 0 0 0 1
device=MCP23017
T 63650 57050 5 8 1 1 0 0 1
refdes=U101
T 62000 51500 5 1 0 0 0 0 1
footprint=SO28
}
C 60200 54100 1 0 0 3.3V-plus-1.sym
C 59700 53600 1 0 0 gnd-1.sym
N 60400 54100 60700 54100 4
N 59800 53900 62000 53900 4
C 66000 53400 1 90 0 resistor-1.sym
{
T 65600 53700 5 10 0 0 90 0 1
device=RESISTOR
T 65700 53600 5 10 1 1 90 0 1
refdes=R101
T 66000 53400 5 10 0 2 0 0 1
description=no not populate
T 65900 53900 5 10 0 1 0 0 1
footprint=AXIAL_LAY 400
}
C 66600 53400 1 90 0 resistor-1.sym
{
T 66200 53700 5 10 0 0 90 0 1
device=RESISTOR
T 66300 53600 5 10 1 1 90 0 1
refdes=R102
T 66600 53400 5 10 0 1 0 0 1
description=do not populate
T 66700 53700 5 10 0 1 0 0 1
footprint=AXIAL_LAY 400
}
C 67200 53400 1 90 0 resistor-1.sym
{
T 66800 53700 5 10 0 0 90 0 1
device=RESISTOR
T 66900 53600 5 10 1 1 90 0 1
refdes=R103
T 67200 53400 5 10 0 1 0 0 1
description=do not populate
T 67100 53700 5 10 0 1 0 0 1
footprint=AXIAL_LAY 400
}
N 64100 53300 65900 53300 4
N 64100 53000 66500 53000 4
N 67100 52700 64100 52700 4
C 65800 51300 1 0 0 gnd-1.sym
C 66400 51300 1 0 0 gnd-1.sym
C 67000 51300 1 0 0 gnd-1.sym
N 65900 54300 67100 54300 4
C 66100 54300 1 0 0 3.3V-plus-1.sym
T 67400 53800 9 10 1 0 0 0 1
Optional Pullups
N 64100 53600 65100 53600 4
{
T 64600 53600 5 10 1 1 0 0 1
netname=RSTOUT
}
C 58800 54100 1 0 0 switch-dip8-1.sym
{
T 60200 56675 5 8 0 0 0 0 1
device=SWITCH_DIP8
T 59100 56850 5 10 1 1 0 0 1
refdes=U102
T 59800 54600 5 10 0 1 0 0 1
footprint=DIP16
}
N 60100 56600 62000 56600 4
N 60100 56300 62000 56300 4
N 60100 56000 62000 56000 4
N 60100 55700 62000 55700 4
N 60100 55400 62000 55400 4
N 60100 55100 62000 55100 4
N 60100 54800 62000 54800 4
N 60100 54500 62000 54500 4
T 60400 56900 9 10 1 0 0 0 1
Use internal pullups
N 62000 54200 60700 54200 4
N 60700 54200 60700 54100 4
N 58800 56600 58800 54500 4
C 58700 54200 1 0 0 gnd-1.sym
N 60500 53000 62000 53000 4
{
T 60500 53000 5 10 1 1 0 0 1
netname=I2C_SDA0
}
N 60500 53300 62000 53300 4
{
T 60500 53300 5 10 1 1 0 0 1
netname=I2C_SCL0
}
T 43700 54900 9 10 1 0 0 0 1
USB
T 40400 54900 9 10 1 0 0 0 1
USB
T 43700 54500 9 10 1 0 0 0 1
USB
T 40400 54100 9 10 1 0 0 0 1
USB
T 43700 53700 9 10 1 0 0 0 1
USB
T 43700 54100 9 10 1 0 0 0 1
SDCARD
T 40100 53700 9 10 1 0 0 0 1
SDCARD
T 40100 53300 9 10 1 0 0 0 1
SDCARD
T 43700 53300 9 10 1 0 0 0 1
SDCARD
T 40100 52900 9 10 1 0 0 0 1
SDCARD
T 49800 59300 9 10 1 0 0 0 1
ETH
T 49800 59700 9 10 1 0 0 0 1
ETH
T 46500 59300 9 10 1 0 0 0 1
ETH
T 46500 58900 9 10 1 0 0 0 1
ETH
T 46500 58500 9 10 1 0 0 0 1
ETH
T 49800 58900 9 10 1 0 0 0 1
ETH
T 46500 58100 9 10 1 0 0 0 1
ETH
T 49800 58500 9 10 1 0 0 0 1
ETH
T 49800 58100 9 10 1 0 0 0 1
ETH
T 46500 57700 9 10 1 0 0 0 1
ETH
T 40400 56500 9 10 1 0 0 0 1
USB
T 46500 53300 9 10 1 0 0 0 1
USB
T 50700 58100 9 10 1 0 0 0 1
UART_CTS/EINT0/ISP_KEY
T 55700 58500 9 10 1 0 0 0 1
KEY1
T 52300 58500 9 10 1 0 0 0 1
KEY2
T 40300 55300 9 10 1 0 0 0 1
LED1
T 43600 55700 9 10 1 0 0 0 1
LED2
T 45700 60100 9 10 1 0 0 0 1
Ext UART/TXD0
T 49600 60500 9 10 1 0 0 0 1
Ext UART/RXD0
T 50300 53700 4 12 1 0 0 0 1
FREE
T 44100 56900 4 12 1 0 0 0 1
FREE/ADC5
T 44000 59700 4 12 1 0 0 0 1
ADC_MOLEX_C
T 44000 59300 4 12 1 0 0 0 1
ADC_TERMPWR_C
N 64100 53900 65100 53900 4
{
T 64400 53900 5 10 1 1 0 0 1
netname=I2C_INTB
}
N 62000 53600 60500 53600 4
{
T 60500 53600 5 10 1 1 0 0 1
netname=I2C_CS
}
C 57600 52300 1 0 1 connector6-1.sym
{
T 55800 54100 5 10 0 0 0 6 1
device=CONNECTOR_6
T 57500 54300 5 10 1 1 0 6 1
refdes=CONN3
T 56700 52000 5 10 1 1 0 0 1
description=Unused Pins
T 57300 53700 5 10 0 1 0 0 1
footprint=JUMPER6
}
C 55600 54000 1 0 0 5V-plus-1.sym
C 54900 53700 1 0 0 3.3V-plus-1.sym
C 54800 52000 1 0 0 gnd-1.sym
C 54300 52700 1 0 0 gnd-1.sym
N 55000 52800 55900 52800 4
{
T 55000 52800 5 10 1 1 0 0 1
netname=P1.31
}
N 55900 53700 55100 53700 4
N 55900 54000 55800 54000 4
N 55900 52500 54900 52500 4
N 54900 52500 54900 52300 4
N 55900 53100 54400 53100 4
N 54400 53100 54400 53000 4
N 55000 53400 55900 53400 4
{
T 55000 53400 5 10 1 1 0 0 1
netname=P2.8
}
T 46500 62800 9 10 1 0 0 0 5
TODO: 
Need to name the following nets!
P0.2
P0.3
P2.12
C 66000 51600 1 90 0 resistor-1.sym
{
T 65600 51900 5 10 0 0 90 0 1
device=RESISTOR
T 65700 51800 5 10 1 1 90 0 1
refdes=R104
T 65900 52000 5 10 0 1 0 0 1
footprint=AXIAL_LAY 400
}
C 66600 51600 1 90 0 resistor-1.sym
{
T 66200 51900 5 10 0 0 90 0 1
device=RESISTOR
T 66300 51800 5 10 1 1 90 0 1
refdes=R105
T 66100 52600 5 10 0 1 0 0 1
footprint=AXIAL_LAY 400
}
C 67200 51600 1 90 0 resistor-1.sym
{
T 66800 51900 5 10 0 0 90 0 1
device=RESISTOR
T 66900 51800 5 10 1 1 90 0 1
refdes=R106
T 67100 52000 5 10 0 1 0 0 1
footprint=AXIAL_LAY 400
}
N 65900 53400 65900 52500 4
N 66500 53400 66500 52500 4
N 67100 53400 67100 52500 4
